<?xml version="1.0" encoding="UTF-8" standalone="no"?>
<svg
   xmlns:dc="http://purl.org/dc/elements/1.1/"
   xmlns:cc="http://creativecommons.org/ns#"
   xmlns:rdf="http://www.w3.org/1999/02/22-rdf-syntax-ns#"
   xmlns:svg="http://www.w3.org/2000/svg"
   xmlns="http://www.w3.org/2000/svg"
   xmlns:sodipodi="http://sodipodi.sourceforge.net/DTD/sodipodi-0.dtd"
   xmlns:inkscape="http://www.inkscape.org/namespaces/inkscape"
   width="1536"
   height="1536"
   version="1.1"
   id="svg4"
   sodipodi:docname="logo.svg"
   inkscape:version="0.92.4 (5da689c313, 2019-01-14)">
  <metadata
     id="metadata10">
    <rdf:RDF>
      <cc:Work
         rdf:about="">
        <dc:format>image/svg+xml</dc:format>
        <dc:type
           rdf:resource="http://purl.org/dc/dcmitype/StillImage" />
      </cc:Work>
    </rdf:RDF>
  </metadata>
  <defs
     id="defs8" />
  <sodipodi:namedview
     pagecolor="#ffffff"
     bordercolor="#666666"
     borderopacity="1"
     objecttolerance="10"
     gridtolerance="10"
     guidetolerance="10"
     inkscape:pageopacity="0"
     inkscape:pageshadow="2"
     inkscape:window-width="1366"
     inkscape:window-height="712"
     id="namedview6"
     showgrid="false"
     inkscape:zoom="0.30729167"
     inkscape:cx="768"
     inkscape:cy="768"
     inkscape:window-x="0"
     inkscape:window-y="27"
     inkscape:window-maximized="1"
     inkscape:current-layer="svg4" />
  <path
     d="m 1184,769.08474 c 0,23 -12,44 -32,55 L 608,1144.0847 c -10,6 -21,9 -32,9 -11,0 -22,-3 -32,-8 -20,-12 -32,-33 -32,-56 V 449.08474 c 0,-23 12,-44 32,-56 20,-11 45,-11 64,1 l 544,320 c 20,11 32,32 32,55 z m 128,0 c 0,-300 -244,-544 -544,-544 -300,0 -544,244 -544,544 0,299.99996 244,543.99996 544,543.99996 300,0 544,-244 544,-543.99996 z m 224,0 c 0,423.99996 -344,767.99996 -768,767.99996 -424,0 -768,-344 -768,-767.99996 0,-424 344,-767.9999941 768,-767.9999941 424,0 768,343.9999941 768,767.9999941 z"
     id="path2"
     inkscape:connector-curvature="0" />
</svg>
